module goshop

go 1.14

require (
	github.com/alecthomas/template v0.0.0-20160405071501-a0175ee3bccc
	github.com/dgrijalva/jwt-go v3.2.0+incompatible
	github.com/gin-gonic/gin v1.6.3
	github.com/go-playground/validator/v10 v10.2.0
	github.com/go-redis/redis/v8 v8.0.0-beta.6
	github.com/google/uuid v1.1.1
	github.com/jinzhu/copier v0.0.0-20190924061706-b57f9002281a
	github.com/jinzhu/gorm v1.9.14
	github.com/spf13/viper v1.7.0
	github.com/swaggo/files v0.0.0-20190704085106-630677cd5c14
	github.com/swaggo/gin-swagger v1.2.0
	github.com/swaggo/swag v1.5.1
	gitlab.com/quangdangfit/gocommon v1.0.5
	golang.org/x/crypto v0.0.0-20191205180655-e7c4368fe9dd
)
